EESchema Schematic File Version 4
EELAYER 30 0
EELAYER END
$Descr A4 11693 8268
encoding utf-8
Sheet 1 1
Title ""
Date ""
Rev ""
Comp ""
Comment1 ""
Comment2 ""
Comment3 ""
Comment4 ""
$EndDescr
$Comp
L power:GND #PWR050
U 1 1 5DA33F97
P 8700 6150
F 0 "#PWR050" H 8700 5900 50  0001 C CNN
F 1 "GND" H 8705 5977 50  0000 C CNN
F 2 "" H 8700 6150 50  0001 C CNN
F 3 "" H 8700 6150 50  0001 C CNN
	1    8700 6150
	1    0    0    -1  
$EndComp
$Comp
L power:+3.3V #PWR052
U 1 1 5DA3E41B
P 8850 5200
F 0 "#PWR052" H 8850 5050 50  0001 C CNN
F 1 "+3.3V" H 8850 5340 50  0000 C CNN
F 2 "" H 8850 5200 50  0001 C CNN
F 3 "" H 8850 5200 50  0001 C CNN
	1    8850 5200
	1    0    0    -1  
$EndComp
Wire Wire Line
	8850 5200 9000 5200
Wire Wire Line
	8600 5400 8600 5700
Wire Wire Line
	8450 5300 8450 5700
Wire Wire Line
	8700 6150 8700 6100
Connection ~ 8700 6100
Text GLabel 8400 5300 0    50   Output ~ 0
ID1
Text GLabel 8400 5400 0    50   Output ~ 0
ID2
Text GLabel 8400 5500 0    50   Output ~ 0
ID4
Text GLabel 8400 5600 0    50   Output ~ 0
ID8
Wire Wire Line
	8400 5300 8450 5300
Wire Wire Line
	8400 5400 8600 5400
Wire Wire Line
	8450 6100 8600 6100
Wire Wire Line
	8800 6000 8800 6100
Wire Wire Line
	8950 6100 8950 6000
Wire Wire Line
	8600 6000 8600 6100
Wire Wire Line
	8450 6000 8450 6100
Text GLabel 2300 7450 0    50   Input ~ 0
UART1_TX
Text GLabel 2300 7350 0    50   Output ~ 0
UART1_RX
$Comp
L power:GND #PWR013
U 1 1 5EFEC29F
P 2050 7100
F 0 "#PWR013" H 2050 6850 50  0001 C CNN
F 1 "GND" H 2055 6927 50  0000 C CNN
F 2 "" H 2050 7100 50  0001 C CNN
F 3 "" H 2050 7100 50  0001 C CNN
	1    2050 7100
	1    0    0    -1  
$EndComp
Wire Wire Line
	2300 7350 2400 7350
Wire Wire Line
	2400 7450 2300 7450
$Comp
L Connector_Generic:Conn_01x06 J2
U 1 1 5F10E27B
P 1450 7250
F 0 "J2" H 1530 7242 50  0000 L CNN
F 1 "Write" H 1530 7151 50  0000 L CNN
F 2 "Connector_PinHeader_2.54mm:PinHeader_1x06_P2.54mm_Vertical" H 1450 7250 50  0001 C CNN
F 3 "~" H 1450 7250 50  0001 C CNN
	1    1450 7250
	1    0    0    -1  
$EndComp
Text GLabel 1150 7150 0    50   Output ~ 0
SWCLK
Text GLabel 1150 7350 0    50   Output ~ 0
SWDIO
Text GLabel 1150 7450 0    50   BiDi ~ 0
NRST
$Comp
L power:+3.3V #PWR08
U 1 1 5F10F0B2
P 1150 7050
F 0 "#PWR08" H 1150 6900 50  0001 C CNN
F 1 "+3.3V" H 1150 7190 50  0000 C CNN
F 2 "" H 1150 7050 50  0001 C CNN
F 3 "" H 1150 7050 50  0001 C CNN
	1    1150 7050
	1    0    0    -1  
$EndComp
$Comp
L power:GND #PWR01
U 1 1 5F10F129
P 750 7250
F 0 "#PWR01" H 750 7000 50  0001 C CNN
F 1 "GND" H 755 7077 50  0000 C CNN
F 2 "" H 750 7250 50  0001 C CNN
F 3 "" H 750 7250 50  0001 C CNN
	1    750  7250
	1    0    0    -1  
$EndComp
Wire Wire Line
	1150 7050 1250 7050
Wire Wire Line
	1250 7150 1150 7150
Wire Wire Line
	750  7250 1250 7250
Wire Wire Line
	1250 7350 1150 7350
Wire Wire Line
	1150 7450 1250 7450
NoConn ~ 1250 7550
Text GLabel 3650 7200 0    50   Output ~ 0
CAN_RX
$Comp
L Connector_Generic:Conn_01x04 J7
U 1 1 5DAD755F
P 5750 7100
F 0 "J7" H 5830 7092 50  0000 L CNN
F 1 "CAN" H 5830 7001 50  0000 L CNN
F 2 "Connector_JST_XA:JST_XA_B04B-XASK-1_1x04_P2.50mm_Vertical" H 5750 7100 50  0001 C CNN
F 3 "~" H 5750 7100 50  0001 C CNN
	1    5750 7100
	1    0    0    -1  
$EndComp
$Comp
L Switch:SW_Push SW1
U 1 1 5E330918
P 1300 5750
F 0 "SW1" H 1300 6035 50  0000 C CNN
F 1 "RST" H 1300 5944 50  0000 C CNN
F 2 "Button_Switch_THT:SW_PUSH_6mm_H5mm" H 1300 5950 50  0001 C CNN
F 3 "" H 1300 5950 50  0001 C CNN
	1    1300 5750
	1    0    0    -1  
$EndComp
$Comp
L power:GND #PWR011
U 1 1 5E331768
P 1500 6050
F 0 "#PWR011" H 1500 5800 50  0001 C CNN
F 1 "GND" H 1505 5877 50  0000 C CNN
F 2 "" H 1500 6050 50  0001 C CNN
F 3 "" H 1500 6050 50  0001 C CNN
	1    1500 6050
	1    0    0    -1  
$EndComp
Text GLabel 1050 5750 0    50   BiDi ~ 0
NRST
Wire Wire Line
	1050 5750 1100 5750
$Comp
L Device:R R5
U 1 1 5E6ED14C
P 4700 7250
F 0 "R5" H 4630 7204 50  0000 R CNN
F 1 "120" H 4630 7295 50  0000 R CNN
F 2 "Resistor_SMD:R_0603_1608Metric" V 4630 7250 50  0001 C CNN
F 3 "~" H 4700 7250 50  0001 C CNN
	1    4700 7250
	-1   0    0    1   
$EndComp
Wire Wire Line
	5500 7300 5500 7350
$Comp
L Connector_Generic:Conn_01x04 J8
U 1 1 5F17CDFC
P 6500 7100
F 0 "J8" H 6580 7092 50  0000 L CNN
F 1 "CAN" H 6580 7001 50  0000 L CNN
F 2 "Connector_JST_XA:JST_XA_B04B-XASK-1_1x04_P2.50mm_Vertical" H 6500 7100 50  0001 C CNN
F 3 "~" H 6500 7100 50  0001 C CNN
	1    6500 7100
	1    0    0    -1  
$EndComp
Wire Wire Line
	5550 7300 5500 7300
Wire Wire Line
	5550 7000 5500 7000
Wire Wire Line
	5500 7000 5500 6950
Wire Wire Line
	6300 7300 6250 7300
Wire Wire Line
	6250 7300 6250 7350
Wire Wire Line
	6250 6950 6250 7000
Wire Wire Line
	6250 7000 6300 7000
Text GLabel 5500 7100 0    50   BiDi ~ 0
CANH
Wire Wire Line
	5500 7100 5550 7100
Text GLabel 6250 7200 0    50   BiDi ~ 0
CANL
Wire Wire Line
	6250 7200 6300 7200
Text GLabel 5500 7200 0    50   BiDi ~ 0
CANL
Wire Wire Line
	5500 7200 5550 7200
Text GLabel 6250 7100 0    50   BiDi ~ 0
CANH
Wire Wire Line
	6250 7100 6300 7100
$Comp
L Connector_Generic:Conn_01x04 J3
U 1 1 5E6EA7CD
P 2600 7250
F 0 "J3" H 2680 7242 50  0000 L CNN
F 1 "uart2" H 2680 7151 50  0000 L CNN
F 2 "Connector_JST_XA:JST_XA_B04B-XASK-1_1x04_P2.50mm_Vertical" H 2600 7250 50  0001 C CNN
F 3 "~" H 2600 7250 50  0001 C CNN
	1    2600 7250
	1    0    0    -1  
$EndComp
$Comp
L power:+3.3V #PWR014
U 1 1 5E894219
P 2300 7150
F 0 "#PWR014" H 2300 7000 50  0001 C CNN
F 1 "+3.3V" H 2300 7290 50  0000 C CNN
F 2 "" H 2300 7150 50  0001 C CNN
F 3 "" H 2300 7150 50  0001 C CNN
	1    2300 7150
	1    0    0    -1  
$EndComp
Wire Wire Line
	2300 7150 2400 7150
Wire Wire Line
	2050 7100 2200 7100
Wire Wire Line
	2200 7100 2200 7250
Wire Wire Line
	2200 7250 2400 7250
Text Notes 1000 650  0    126  ~ 25
Power_1\n
Text Notes 1700 6600 0    126  ~ 25
Connectivity_3\n
Wire Notes Line
	6750 7750 6750 6550
Wire Notes Line
	6750 6550 3050 6550
Wire Notes Line
	600  7750 600  6550
Wire Notes Line
	600  6550 1700 6550
Text Notes 8400 4850 0    126  ~ 25
IDs_10\n
Wire Notes Line
	10000 6450 10000 4800
$Comp
L power:GND #PWR019
U 1 1 5EDC8101
P 3200 7400
F 0 "#PWR019" H 3200 7150 50  0001 C CNN
F 1 "GND" H 3205 7227 50  0000 C CNN
F 2 "" H 3200 7400 50  0001 C CNN
F 3 "" H 3200 7400 50  0001 C CNN
	1    3200 7400
	1    0    0    -1  
$EndComp
$Comp
L power:+3.3V #PWR018
U 1 1 5EE065CE
P 3200 7100
F 0 "#PWR018" H 3200 6950 50  0001 C CNN
F 1 "+3.3V" H 3200 7240 50  0000 C CNN
F 2 "" H 3200 7100 50  0001 C CNN
F 3 "" H 3200 7100 50  0001 C CNN
	1    3200 7100
	1    0    0    -1  
$EndComp
Wire Wire Line
	3200 7400 3650 7400
$Comp
L Device:C C10
U 1 1 5E66A992
P 3200 7250
F 0 "C10" H 3315 7296 50  0000 L CNN
F 1 "0.1u" H 3315 7205 50  0000 L CNN
F 2 "Capacitor_SMD:C_0603_1608Metric" H 3238 7100 50  0001 C CNN
F 3 "~" H 3200 7250 50  0001 C CNN
	1    3200 7250
	-1   0    0    -1  
$EndComp
Text GLabel 4800 7100 2    50   BiDi ~ 0
CANH
Text GLabel 4800 7400 2    50   BiDi ~ 0
CANL
Wire Wire Line
	4700 7400 4800 7400
Wire Wire Line
	4700 7100 4800 7100
Wire Wire Line
	8800 5600 8800 5700
Wire Wire Line
	8950 5700 8950 5500
Wire Notes Line
	8150 6450 10000 6450
Wire Notes Line
	8150 4800 8150 6450
Wire Notes Line
	8450 4800 8150 4800
Text Notes 7350 7500 0    59   ~ 12
nhk2021_UIBoard powered by Okuda
Wire Notes Line
	5050 1750 5050 650 
Wire Notes Line
	11100 2300 11100 600 
Text Notes 6650 650  0    126  ~ 25
ToggleSW_6\n
$Comp
L power:GND #PWR059
U 1 1 606B1099
P 10350 1800
F 0 "#PWR059" H 10350 1550 50  0001 C CNN
F 1 "GND" H 10355 1627 50  0000 C CNN
F 2 "" H 10350 1800 50  0001 C CNN
F 3 "" H 10350 1800 50  0001 C CNN
	1    10350 1800
	1    0    0    -1  
$EndComp
$Comp
L power:GND #PWR054
U 1 1 606A808C
P 9300 1800
F 0 "#PWR054" H 9300 1550 50  0001 C CNN
F 1 "GND" H 9305 1627 50  0000 C CNN
F 2 "" H 9300 1800 50  0001 C CNN
F 3 "" H 9300 1800 50  0001 C CNN
	1    9300 1800
	1    0    0    -1  
$EndComp
$Comp
L power:GND #PWR048
U 1 1 6069ED4B
P 8300 1800
F 0 "#PWR048" H 8300 1550 50  0001 C CNN
F 1 "GND" H 8305 1627 50  0000 C CNN
F 2 "" H 8300 1800 50  0001 C CNN
F 3 "" H 8300 1800 50  0001 C CNN
	1    8300 1800
	1    0    0    -1  
$EndComp
$Comp
L power:GND #PWR043
U 1 1 6069D8B7
P 7300 1800
F 0 "#PWR043" H 7300 1550 50  0001 C CNN
F 1 "GND" H 7305 1627 50  0000 C CNN
F 2 "" H 7300 1800 50  0001 C CNN
F 3 "" H 7300 1800 50  0001 C CNN
	1    7300 1800
	1    0    0    -1  
$EndComp
Wire Wire Line
	10350 1650 10350 1800
Wire Wire Line
	9300 1650 9300 1800
Wire Wire Line
	8300 1650 8300 1800
Wire Wire Line
	7300 1650 7300 1800
Wire Wire Line
	10350 1250 10350 1350
Wire Wire Line
	9300 1250 9300 1350
Wire Wire Line
	8300 1250 8300 1350
Wire Wire Line
	7300 1250 7300 1350
$Comp
L Device:R R27
U 1 1 6062C4C9
P 10350 1500
F 0 "R27" H 10420 1546 50  0000 L CNN
F 1 "10k" H 10420 1455 50  0000 L CNN
F 2 "Resistor_SMD:R_0603_1608Metric" V 10280 1500 50  0001 C CNN
F 3 "~" H 10350 1500 50  0001 C CNN
	1    10350 1500
	1    0    0    -1  
$EndComp
$Comp
L Device:R R24
U 1 1 6062C4C3
P 9300 1500
F 0 "R24" H 9370 1546 50  0000 L CNN
F 1 "10k" H 9370 1455 50  0000 L CNN
F 2 "Resistor_SMD:R_0603_1608Metric" V 9230 1500 50  0001 C CNN
F 3 "~" H 9300 1500 50  0001 C CNN
	1    9300 1500
	1    0    0    -1  
$EndComp
$Comp
L Device:R R17
U 1 1 6062AED0
P 8300 1500
F 0 "R17" H 8370 1546 50  0000 L CNN
F 1 "10k" H 8370 1455 50  0000 L CNN
F 2 "Resistor_SMD:R_0603_1608Metric" V 8230 1500 50  0001 C CNN
F 3 "~" H 8300 1500 50  0001 C CNN
	1    8300 1500
	1    0    0    -1  
$EndComp
$Comp
L Device:R R16
U 1 1 60629600
P 7300 1500
F 0 "R16" H 7370 1546 50  0000 L CNN
F 1 "10k" H 7370 1455 50  0000 L CNN
F 2 "Resistor_SMD:R_0603_1608Metric" V 7230 1500 50  0001 C CNN
F 3 "~" H 7300 1500 50  0001 C CNN
	1    7300 1500
	1    0    0    -1  
$EndComp
Wire Wire Line
	10300 1250 10350 1250
Wire Wire Line
	9250 1250 9300 1250
Wire Wire Line
	8250 1250 8300 1250
Wire Wire Line
	7250 1250 7300 1250
Text GLabel 10300 1250 0    50   Output ~ 0
toggle4
Text GLabel 9250 1250 0    50   Output ~ 0
toggle3
Text GLabel 8250 1250 0    50   Output ~ 0
toggle2
Text GLabel 7250 1250 0    50   Output ~ 0
toggle1
Wire Wire Line
	10850 1150 10850 1000
Wire Wire Line
	9800 1000 9800 1150
Wire Wire Line
	8800 1000 8800 1150
Wire Wire Line
	7800 1000 7800 1150
$Comp
L power:+3.3V #PWR064
U 1 1 6054B9AA
P 10850 1000
F 0 "#PWR064" H 10850 850 50  0001 C CNN
F 1 "+3.3V" H 10865 1173 50  0000 C CNN
F 2 "" H 10850 1000 50  0001 C CNN
F 3 "" H 10850 1000 50  0001 C CNN
	1    10850 1000
	1    0    0    -1  
$EndComp
$Comp
L power:+3.3V #PWR056
U 1 1 60543CB3
P 9800 1000
F 0 "#PWR056" H 9800 850 50  0001 C CNN
F 1 "+3.3V" H 9815 1173 50  0000 C CNN
F 2 "" H 9800 1000 50  0001 C CNN
F 3 "" H 9800 1000 50  0001 C CNN
	1    9800 1000
	1    0    0    -1  
$EndComp
$Comp
L power:+3.3V #PWR051
U 1 1 6053BE68
P 8800 1000
F 0 "#PWR051" H 8800 850 50  0001 C CNN
F 1 "+3.3V" H 8815 1173 50  0000 C CNN
F 2 "" H 8800 1000 50  0001 C CNN
F 3 "" H 8800 1000 50  0001 C CNN
	1    8800 1000
	1    0    0    -1  
$EndComp
$Comp
L power:+3.3V #PWR044
U 1 1 6053B281
P 7800 1000
F 0 "#PWR044" H 7800 850 50  0001 C CNN
F 1 "+3.3V" H 7815 1173 50  0000 C CNN
F 2 "" H 7800 1000 50  0001 C CNN
F 3 "" H 7800 1000 50  0001 C CNN
	1    7800 1000
	1    0    0    -1  
$EndComp
Text Notes 4250 700  0    126  ~ 25
LCD_4\n
Wire Notes Line
	6000 650  6600 650 
Text Notes 5300 700  0    126  ~ 25
FuncSW_5\n
Wire Notes Line
	5050 650  5350 650 
Wire Notes Line
	6600 1750 5050 1750
Wire Notes Line
	6600 650  6600 1750
$Comp
L power:+3.3V #PWR038
U 1 1 605D07AB
P 6350 950
F 0 "#PWR038" H 6350 800 50  0001 C CNN
F 1 "+3.3V" H 6365 1123 50  0000 C CNN
F 2 "" H 6350 950 50  0001 C CNN
F 3 "" H 6350 950 50  0001 C CNN
	1    6350 950 
	1    0    0    -1  
$EndComp
Connection ~ 6350 1050
Wire Wire Line
	6350 1050 6350 950 
Wire Wire Line
	5900 1650 6050 1650
Wire Wire Line
	5900 1600 5900 1650
Connection ~ 6350 1150
Wire Wire Line
	6350 1300 6300 1300
Wire Wire Line
	6350 1150 6350 1300
Wire Wire Line
	6350 1050 6350 1150
$Comp
L Device:R R11
U 1 1 605B1CA1
P 5900 1450
F 0 "R11" H 5970 1496 50  0000 L CNN
F 1 "100" H 5970 1405 50  0000 L CNN
F 2 "Resistor_SMD:R_0603_1608Metric" V 5830 1450 50  0001 C CNN
F 3 "~" H 5900 1450 50  0001 C CNN
	1    5900 1450
	1    0    0    -1  
$EndComp
Connection ~ 5850 1050
Wire Wire Line
	5850 1150 5850 1050
Connection ~ 5550 1050
Wire Wire Line
	5550 1050 5850 1050
$Comp
L aki_Switch:ST12-303FCG SW3
U 1 1 60599F60
P 6100 1200
F 0 "SW3" H 6100 1635 50  0000 C CNN
F 1 "FuncSW" H 6100 1544 50  0000 C CNN
F 2 "aki_Switch:ST12303FCG" H 6600 1450 50  0001 L CNN
F 3 "http://akizukidenshi.com/download/ST-12-303FC-G_SPEC.pdf" H 6600 1350 50  0001 L CNN
F 4 "Pushbutton Switch" H 6600 1250 50  0001 L CNN "Description"
F 5 "8" H 6600 1150 50  0001 L CNN "Height"
F 6 "Switronic" H 6600 1050 50  0001 L CNN "Manufacturer_Name"
F 7 "ST12-303FCG" H 6600 950 50  0001 L CNN "Manufacturer_Part_Number"
	1    6100 1200
	1    0    0    -1  
$EndComp
$Comp
L power:GND #PWR035
U 1 1 60599464
P 5550 1350
F 0 "#PWR035" H 5550 1100 50  0001 C CNN
F 1 "GND" H 5555 1177 50  0000 C CNN
F 2 "" H 5550 1350 50  0001 C CNN
F 3 "" H 5550 1350 50  0001 C CNN
	1    5550 1350
	1    0    0    -1  
$EndComp
$Comp
L Device:R R9
U 1 1 60597515
P 5550 1200
F 0 "R9" H 5620 1246 50  0000 L CNN
F 1 "10k" H 5620 1155 50  0000 L CNN
F 2 "Resistor_SMD:R_0603_1608Metric" V 5480 1200 50  0001 C CNN
F 3 "~" H 5550 1200 50  0001 C CNN
	1    5550 1200
	1    0    0    -1  
$EndComp
Wire Wire Line
	5450 1050 5550 1050
Text GLabel 5450 1050 0    50   Output ~ 0
FuncSW
Text GLabel 5250 3050 0    50   Output ~ 0
Mode1
Wire Wire Line
	5250 3050 5400 3050
$Comp
L Device:R R8
U 1 1 606008A5
P 5400 3200
F 0 "R8" H 5470 3246 50  0000 L CNN
F 1 "10k" H 5470 3155 50  0000 L CNN
F 2 "Resistor_SMD:R_0603_1608Metric" V 5330 3200 50  0001 C CNN
F 3 "~" H 5400 3200 50  0001 C CNN
	1    5400 3200
	1    0    0    -1  
$EndComp
Connection ~ 5400 3050
Wire Wire Line
	5400 3050 5650 3050
Wire Wire Line
	5400 3350 5400 3550
$Comp
L power:GND #PWR032
U 1 1 60614DB9
P 5400 3550
F 0 "#PWR032" H 5400 3300 50  0001 C CNN
F 1 "GND" H 5405 3377 50  0000 C CNN
F 2 "" H 5400 3550 50  0001 C CNN
F 3 "" H 5400 3550 50  0001 C CNN
	1    5400 3550
	1    0    0    -1  
$EndComp
Wire Wire Line
	5650 3300 5650 3450
$Comp
L Device:R R10
U 1 1 6061EB48
P 5650 3600
F 0 "R10" H 5720 3646 50  0000 L CNN
F 1 "100" H 5720 3555 50  0000 L CNN
F 2 "Resistor_SMD:R_0603_1608Metric" V 5580 3600 50  0001 C CNN
F 3 "~" H 5650 3600 50  0001 C CNN
	1    5650 3600
	1    0    0    -1  
$EndComp
Wire Wire Line
	5650 3750 5650 3900
Wire Wire Line
	5650 3900 5750 3900
Text GLabel 5750 3900 2    50   Input ~ 0
Mode1_LED
$Comp
L power:+3.3V #PWR039
U 1 1 6063CF09
P 6350 2850
F 0 "#PWR039" H 6350 2700 50  0001 C CNN
F 1 "+3.3V" H 6365 3023 50  0000 C CNN
F 2 "" H 6350 2850 50  0001 C CNN
F 3 "" H 6350 2850 50  0001 C CNN
	1    6350 2850
	1    0    0    -1  
$EndComp
Wire Wire Line
	6350 3150 6350 2850
Connection ~ 6350 3150
Wire Wire Line
	6050 3150 6350 3150
Wire Wire Line
	6350 3300 6350 3150
Wire Wire Line
	6050 3300 6350 3300
Text GLabel 6700 3050 0    50   Output ~ 0
Mode2
Wire Wire Line
	6700 3050 6850 3050
$Comp
L Device:R R14
U 1 1 6064BD7A
P 6850 3200
F 0 "R14" H 6920 3246 50  0000 L CNN
F 1 "10k" H 6920 3155 50  0000 L CNN
F 2 "Resistor_SMD:R_0603_1608Metric" V 6780 3200 50  0001 C CNN
F 3 "~" H 6850 3200 50  0001 C CNN
	1    6850 3200
	1    0    0    -1  
$EndComp
Connection ~ 6850 3050
Wire Wire Line
	6850 3050 7100 3050
$Comp
L aki_Switch:MP86A1GN3H-G SW5
U 1 1 6064BD86
P 7300 3200
F 0 "SW5" H 7300 3635 50  0000 C CNN
F 1 "Mode2" H 7300 3544 50  0000 C CNN
F 2 "aki_Switch:MP86A1GN3H-G" H 7800 3450 50  0001 L CNN
F 3 "http://akizukidenshi.com/download/ds/switronic/MP86A1GN3H-G.pdf" H 7800 3350 50  0001 L CNN
F 4 "Pushbutton Switch" H 7800 3250 50  0001 L CNN "Description"
F 5 "8" H 7800 3150 50  0001 L CNN "Height"
F 6 "Switronic" H 7800 3050 50  0001 L CNN "Manufacturer_Name"
F 7 "MP86-A1-GN-3H-G" H 7800 2950 50  0001 L CNN "Manufacturer_Part_Number"
	1    7300 3200
	1    0    0    -1  
$EndComp
Wire Wire Line
	6850 3350 6850 3550
$Comp
L power:GND #PWR041
U 1 1 6064BD8D
P 6850 3550
F 0 "#PWR041" H 6850 3300 50  0001 C CNN
F 1 "GND" H 6855 3377 50  0000 C CNN
F 2 "" H 6850 3550 50  0001 C CNN
F 3 "" H 6850 3550 50  0001 C CNN
	1    6850 3550
	1    0    0    -1  
$EndComp
Wire Wire Line
	7100 3300 7100 3450
$Comp
L Device:R R15
U 1 1 6064BD94
P 7100 3600
F 0 "R15" H 7170 3646 50  0000 L CNN
F 1 "100" H 7170 3555 50  0000 L CNN
F 2 "Resistor_SMD:R_0603_1608Metric" V 7030 3600 50  0001 C CNN
F 3 "~" H 7100 3600 50  0001 C CNN
	1    7100 3600
	1    0    0    -1  
$EndComp
Wire Wire Line
	7100 3750 7100 3900
Wire Wire Line
	7100 3900 7200 3900
Text GLabel 7200 3900 2    50   Input ~ 0
Mode2_LED
$Comp
L power:+3.3V #PWR045
U 1 1 6064BD9D
P 7800 2850
F 0 "#PWR045" H 7800 2700 50  0001 C CNN
F 1 "+3.3V" H 7815 3023 50  0000 C CNN
F 2 "" H 7800 2850 50  0001 C CNN
F 3 "" H 7800 2850 50  0001 C CNN
	1    7800 2850
	1    0    0    -1  
$EndComp
Wire Wire Line
	7800 3150 7800 2850
Connection ~ 7800 3150
Wire Wire Line
	7500 3150 7800 3150
Wire Wire Line
	7800 3300 7800 3150
Wire Wire Line
	7500 3300 7800 3300
Text GLabel 8150 3050 0    50   Output ~ 0
Mode3
Wire Wire Line
	8150 3050 8300 3050
$Comp
L Device:R R18
U 1 1 60658CB8
P 8300 3200
F 0 "R18" H 8370 3246 50  0000 L CNN
F 1 "10k" H 8370 3155 50  0000 L CNN
F 2 "Resistor_SMD:R_0603_1608Metric" V 8230 3200 50  0001 C CNN
F 3 "~" H 8300 3200 50  0001 C CNN
	1    8300 3200
	1    0    0    -1  
$EndComp
Connection ~ 8300 3050
Wire Wire Line
	8300 3050 8550 3050
$Comp
L aki_Switch:MP86A1GN3H-G SW8
U 1 1 60658CC4
P 8750 3200
F 0 "SW8" H 8750 3635 50  0000 C CNN
F 1 "Mode3" H 8750 3544 50  0000 C CNN
F 2 "aki_Switch:MP86A1GN3H-G" H 9250 3450 50  0001 L CNN
F 3 "http://akizukidenshi.com/download/ds/switronic/MP86A1GN3H-G.pdf" H 9250 3350 50  0001 L CNN
F 4 "Pushbutton Switch" H 9250 3250 50  0001 L CNN "Description"
F 5 "8" H 9250 3150 50  0001 L CNN "Height"
F 6 "Switronic" H 9250 3050 50  0001 L CNN "Manufacturer_Name"
F 7 "MP86-A1-GN-3H-G" H 9250 2950 50  0001 L CNN "Manufacturer_Part_Number"
	1    8750 3200
	1    0    0    -1  
$EndComp
Wire Wire Line
	8300 3350 8300 3550
$Comp
L power:GND #PWR049
U 1 1 60658CCB
P 8300 3550
F 0 "#PWR049" H 8300 3300 50  0001 C CNN
F 1 "GND" H 8305 3377 50  0000 C CNN
F 2 "" H 8300 3550 50  0001 C CNN
F 3 "" H 8300 3550 50  0001 C CNN
	1    8300 3550
	1    0    0    -1  
$EndComp
Wire Wire Line
	8550 3300 8550 3450
$Comp
L Device:R R20
U 1 1 60658CD2
P 8550 3600
F 0 "R20" H 8620 3646 50  0000 L CNN
F 1 "100" H 8620 3555 50  0000 L CNN
F 2 "Resistor_SMD:R_0603_1608Metric" V 8480 3600 50  0001 C CNN
F 3 "~" H 8550 3600 50  0001 C CNN
	1    8550 3600
	1    0    0    -1  
$EndComp
Wire Wire Line
	8550 3750 8550 3900
Wire Wire Line
	8550 3900 8650 3900
Text GLabel 8650 3900 2    50   Input ~ 0
Mode3_LED
$Comp
L power:+3.3V #PWR053
U 1 1 60658CDB
P 9250 2850
F 0 "#PWR053" H 9250 2700 50  0001 C CNN
F 1 "+3.3V" H 9265 3023 50  0000 C CNN
F 2 "" H 9250 2850 50  0001 C CNN
F 3 "" H 9250 2850 50  0001 C CNN
	1    9250 2850
	1    0    0    -1  
$EndComp
Wire Wire Line
	9250 3150 9250 2850
Connection ~ 9250 3150
Wire Wire Line
	8950 3150 9250 3150
Wire Wire Line
	9250 3300 9250 3150
Wire Wire Line
	8950 3300 9250 3300
Text GLabel 9600 3050 0    50   Output ~ 0
Mode4
Wire Wire Line
	9600 3050 9750 3050
$Comp
L Device:R R25
U 1 1 60666AA4
P 9750 3200
F 0 "R25" H 9820 3246 50  0000 L CNN
F 1 "10k" H 9820 3155 50  0000 L CNN
F 2 "Resistor_SMD:R_0603_1608Metric" V 9680 3200 50  0001 C CNN
F 3 "~" H 9750 3200 50  0001 C CNN
	1    9750 3200
	1    0    0    -1  
$EndComp
Connection ~ 9750 3050
Wire Wire Line
	9750 3050 10000 3050
$Comp
L aki_Switch:MP86A1GN3H-G SW11
U 1 1 60666AB0
P 10200 3200
F 0 "SW11" H 10200 3635 50  0000 C CNN
F 1 "Mode4" H 10200 3544 50  0000 C CNN
F 2 "aki_Switch:MP86A1GN3H-G" H 10700 3450 50  0001 L CNN
F 3 "http://akizukidenshi.com/download/ds/switronic/MP86A1GN3H-G.pdf" H 10700 3350 50  0001 L CNN
F 4 "Pushbutton Switch" H 10700 3250 50  0001 L CNN "Description"
F 5 "8" H 10700 3150 50  0001 L CNN "Height"
F 6 "Switronic" H 10700 3050 50  0001 L CNN "Manufacturer_Name"
F 7 "MP86-A1-GN-3H-G" H 10700 2950 50  0001 L CNN "Manufacturer_Part_Number"
	1    10200 3200
	1    0    0    -1  
$EndComp
Wire Wire Line
	9750 3350 9750 3550
$Comp
L power:GND #PWR055
U 1 1 60666AB7
P 9750 3550
F 0 "#PWR055" H 9750 3300 50  0001 C CNN
F 1 "GND" H 9755 3377 50  0000 C CNN
F 2 "" H 9750 3550 50  0001 C CNN
F 3 "" H 9750 3550 50  0001 C CNN
	1    9750 3550
	1    0    0    -1  
$EndComp
Wire Wire Line
	10000 3300 10000 3450
$Comp
L Device:R R26
U 1 1 60666ABE
P 10000 3600
F 0 "R26" H 10070 3646 50  0000 L CNN
F 1 "100" H 10070 3555 50  0000 L CNN
F 2 "Resistor_SMD:R_0603_1608Metric" V 9930 3600 50  0001 C CNN
F 3 "~" H 10000 3600 50  0001 C CNN
	1    10000 3600
	1    0    0    -1  
$EndComp
Wire Wire Line
	10000 3750 10000 3900
Wire Wire Line
	10000 3900 10100 3900
Text GLabel 10100 3900 2    50   Input ~ 0
Mode4_LED
$Comp
L power:+3.3V #PWR062
U 1 1 60666AC7
P 10700 2850
F 0 "#PWR062" H 10700 2700 50  0001 C CNN
F 1 "+3.3V" H 10715 3023 50  0000 C CNN
F 2 "" H 10700 2850 50  0001 C CNN
F 3 "" H 10700 2850 50  0001 C CNN
	1    10700 2850
	1    0    0    -1  
$EndComp
Wire Wire Line
	10700 3150 10700 2850
Connection ~ 10700 3150
Wire Wire Line
	10400 3150 10700 3150
Wire Wire Line
	10700 3300 10700 3150
Wire Wire Line
	10400 3300 10700 3300
Text Notes 5200 2500 0    126  ~ 25
ModeSW_7
$Comp
L Connector_Generic:Conn_01x03 J6
U 1 1 606FC906
P 4550 5800
F 0 "J6" H 4468 5475 50  0000 C CNN
F 1 "Vol2" H 4468 5566 50  0000 C CNN
F 2 "Connector_JST_XA:JST_XA_B03B-XASK-1_1x03_P2.50mm_Vertical" H 4550 5800 50  0001 C CNN
F 3 "~" H 4550 5800 50  0001 C CNN
	1    4550 5800
	-1   0    0    1   
$EndComp
$Comp
L power:+3.3V #PWR030
U 1 1 606FC90C
P 4850 5600
F 0 "#PWR030" H 4850 5450 50  0001 C CNN
F 1 "+3.3V" H 4865 5773 50  0000 C CNN
F 2 "" H 4850 5600 50  0001 C CNN
F 3 "" H 4850 5600 50  0001 C CNN
	1    4850 5600
	1    0    0    -1  
$EndComp
$Comp
L power:GND #PWR031
U 1 1 606FC916
P 4850 6000
F 0 "#PWR031" H 4850 5750 50  0001 C CNN
F 1 "GND" H 4855 5827 50  0000 C CNN
F 2 "" H 4850 6000 50  0001 C CNN
F 3 "" H 4850 6000 50  0001 C CNN
	1    4850 6000
	1    0    0    -1  
$EndComp
Wire Wire Line
	4750 5900 4850 5900
Wire Wire Line
	4850 5900 4850 6000
Wire Wire Line
	4750 5800 4900 5800
Wire Wire Line
	4850 5600 4850 5700
Wire Wire Line
	4850 5700 4750 5700
Text GLabel 4900 5800 2    50   Output ~ 0
Volume2
$Comp
L Connector_Generic:Conn_01x03 J5
U 1 1 6079F056
P 4550 4800
F 0 "J5" H 4468 4475 50  0000 C CNN
F 1 "Vol1" H 4468 4566 50  0000 C CNN
F 2 "Connector_JST_XA:JST_XA_B03B-XASK-1_1x03_P2.50mm_Vertical" H 4550 4800 50  0001 C CNN
F 3 "~" H 4550 4800 50  0001 C CNN
	1    4550 4800
	-1   0    0    1   
$EndComp
$Comp
L power:+3.3V #PWR028
U 1 1 6079F05C
P 4850 4600
F 0 "#PWR028" H 4850 4450 50  0001 C CNN
F 1 "+3.3V" H 4865 4773 50  0000 C CNN
F 2 "" H 4850 4600 50  0001 C CNN
F 3 "" H 4850 4600 50  0001 C CNN
	1    4850 4600
	1    0    0    -1  
$EndComp
$Comp
L power:GND #PWR029
U 1 1 6079F062
P 4850 5000
F 0 "#PWR029" H 4850 4750 50  0001 C CNN
F 1 "GND" H 4855 4827 50  0000 C CNN
F 2 "" H 4850 5000 50  0001 C CNN
F 3 "" H 4850 5000 50  0001 C CNN
	1    4850 5000
	1    0    0    -1  
$EndComp
Wire Wire Line
	4750 4900 4850 4900
Wire Wire Line
	4850 4900 4850 5000
Wire Wire Line
	4750 4800 4900 4800
Wire Wire Line
	4850 4600 4850 4700
Wire Wire Line
	4850 4700 4750 4700
Text GLabel 4900 4800 2    50   Output ~ 0
Volume1
Text Notes 4500 4350 0    126  ~ 25
Volume_8
Wire Notes Line
	4450 4300 4250 4300
Wire Notes Line
	4250 4300 4250 6300
Wire Notes Line
	4250 6300 5500 6300
Wire Notes Line
	5500 6300 5500 4300
Wire Notes Line
	5500 4300 5250 4300
$Comp
L Switch:SW_MEC_5G_2LED SW4
U 1 1 608519FC
P 7150 5050
F 0 "SW4" H 7150 5535 50  0000 C CNN
F 1 "start" H 7150 5444 50  0000 C CNN
F 2 "Connector_JST_XA:JST_XA_B04B-XASK-1_1x04_P2.50mm_Vertical" H 7150 5450 50  0001 C CNN
F 3 "http://www.apem.com/int/index.php?controller=attachment&id_attachment=488" H 7150 5450 50  0001 C CNN
	1    7150 5050
	1    0    0    -1  
$EndComp
Text GLabel 6600 4850 0    50   Output ~ 0
StartSW
Wire Wire Line
	6600 4850 6650 4850
$Comp
L Device:R R13
U 1 1 608663A5
P 6650 5000
F 0 "R13" H 6720 5046 50  0000 L CNN
F 1 "10k" H 6720 4955 50  0000 L CNN
F 2 "Resistor_SMD:R_0603_1608Metric" V 6580 5000 50  0001 C CNN
F 3 "~" H 6650 5000 50  0001 C CNN
	1    6650 5000
	1    0    0    -1  
$EndComp
Connection ~ 6650 4850
Wire Wire Line
	6650 4850 6850 4850
$Comp
L power:GND #PWR040
U 1 1 608687B7
P 6650 5150
F 0 "#PWR040" H 6650 4900 50  0001 C CNN
F 1 "GND" H 6655 4977 50  0000 C CNN
F 2 "" H 6650 5150 50  0001 C CNN
F 3 "" H 6650 5150 50  0001 C CNN
	1    6650 5150
	1    0    0    -1  
$EndComp
Wire Wire Line
	6850 5150 6850 5450
Text GLabel 6300 5650 0    50   Input ~ 0
StartSW_LED
Wire Wire Line
	6300 5650 6400 5650
$Comp
L Device:R R12
U 1 1 608BF5AA
P 6400 5800
F 0 "R12" H 6470 5846 50  0000 L CNN
F 1 "10k" H 6470 5755 50  0000 L CNN
F 2 "Resistor_SMD:R_0603_1608Metric" V 6330 5800 50  0001 C CNN
F 3 "~" H 6400 5800 50  0001 C CNN
	1    6400 5800
	1    0    0    -1  
$EndComp
Connection ~ 6400 5650
Wire Wire Line
	6400 5650 6550 5650
Wire Wire Line
	6850 5850 6850 6050
Wire Wire Line
	6400 5950 6400 6050
Wire Wire Line
	6400 6050 6850 6050
Connection ~ 6850 6050
Wire Wire Line
	6850 6050 6850 6200
$Comp
L power:GND #PWR042
U 1 1 608DF745
P 6850 6200
F 0 "#PWR042" H 6850 5950 50  0001 C CNN
F 1 "GND" H 6855 6027 50  0000 C CNN
F 2 "" H 6850 6200 50  0001 C CNN
F 3 "" H 6850 6200 50  0001 C CNN
	1    6850 6200
	1    0    0    -1  
$EndComp
Wire Wire Line
	7450 4850 7800 4850
Wire Wire Line
	7800 4850 7800 4750
Wire Wire Line
	7450 5150 7800 5150
$Comp
L power:+3.3V #PWR046
U 1 1 608FF8F4
P 7800 4750
F 0 "#PWR046" H 7800 4600 50  0001 C CNN
F 1 "+3.3V" H 7815 4923 50  0000 C CNN
F 2 "" H 7800 4750 50  0001 C CNN
F 3 "" H 7800 4750 50  0001 C CNN
	1    7800 4750
	1    0    0    -1  
$EndComp
$Comp
L power:+12V #PWR047
U 1 1 6090172C
P 7800 5100
F 0 "#PWR047" H 7800 4950 50  0001 C CNN
F 1 "+12V" H 7815 5273 50  0000 C CNN
F 2 "" H 7800 5100 50  0001 C CNN
F 3 "" H 7800 5100 50  0001 C CNN
	1    7800 5100
	1    0    0    -1  
$EndComp
Wire Wire Line
	7800 5150 7800 5100
Text Notes 6400 4450 0    126  ~ 25
StartSW_9
Wire Notes Line
	6350 4350 5750 4350
Wire Notes Line
	5750 4350 5750 6450
Wire Notes Line
	5750 6450 8000 6450
Wire Notes Line
	8000 6450 8000 4350
Wire Notes Line
	8000 4350 7200 4350
$Comp
L Device:Q_NMOS_GSD Q2
U 1 1 605416B9
P 6750 5650
F 0 "Q2" H 6954 5696 50  0000 L CNN
F 1 "Q_NMOS_GSD" H 6954 5605 50  0000 L CNN
F 2 "Package_TO_SOT_SMD:SOT-23" H 6950 5750 50  0001 C CNN
F 3 "~" H 6750 5650 50  0001 C CNN
	1    6750 5650
	1    0    0    -1  
$EndComp
NoConn ~ 6050 2950
NoConn ~ 7500 2950
NoConn ~ 8950 2950
NoConn ~ 10400 2950
Wire Notes Line
	1750 600  1750 650 
$Comp
L Regulator_Linear:AZ1117-3.3 U1
U 1 1 5DA8DBFD
P 2700 1050
F 0 "U1" H 2700 1292 50  0000 C CNN
F 1 "AZ1086-3.3" H 2700 1201 50  0000 C CNN
F 2 "Package_TO_SOT_SMD:SOT-223-3_TabPin2" H 2700 1300 50  0001 C CIN
F 3 "https://www.diodes.com/assets/Datasheets/AZ1117.pdf" H 2700 1050 50  0001 C CNN
	1    2700 1050
	1    0    0    -1  
$EndComp
Connection ~ 3100 1050
Wire Wire Line
	3000 1050 3100 1050
Wire Wire Line
	2400 1050 2250 1050
Wire Wire Line
	3300 1050 3100 1050
Wire Wire Line
	2700 1350 3100 1350
Connection ~ 2700 1350
Wire Wire Line
	2250 1350 2700 1350
$Comp
L power:+3.3V #PWR020
U 1 1 5DA8B488
P 3300 1050
F 0 "#PWR020" H 3300 900 50  0001 C CNN
F 1 "+3.3V" H 3300 1190 50  0000 C CNN
F 2 "" H 3300 1050 50  0001 C CNN
F 3 "" H 3300 1050 50  0001 C CNN
	1    3300 1050
	1    0    0    -1  
$EndComp
$Comp
L power:GND #PWR015
U 1 1 5DA8B426
P 2700 1350
F 0 "#PWR015" H 2700 1100 50  0001 C CNN
F 1 "GND" H 2705 1177 50  0000 C CNN
F 2 "" H 2700 1350 50  0001 C CNN
F 3 "" H 2700 1350 50  0001 C CNN
	1    2700 1350
	1    0    0    -1  
$EndComp
$Comp
L Device:C C9
U 1 1 5DA8B377
P 3100 1200
F 0 "C9" H 3215 1246 50  0000 L CNN
F 1 "0.1u" H 3215 1155 50  0000 L CNN
F 2 "Capacitor_SMD:C_0603_1608Metric" H 3138 1050 50  0001 C CNN
F 3 "~" H 3100 1200 50  0001 C CNN
	1    3100 1200
	1    0    0    -1  
$EndComp
$Comp
L Device:C C8
U 1 1 5DA8B311
P 2250 1200
F 0 "C8" H 2365 1246 50  0000 L CNN
F 1 "0.33u" H 2365 1155 50  0000 L CNN
F 2 "Capacitor_SMD:C_0603_1608Metric" H 2288 1050 50  0001 C CNN
F 3 "~" H 2250 1200 50  0001 C CNN
	1    2250 1200
	-1   0    0    -1  
$EndComp
Wire Wire Line
	1100 1150 1300 1150
Wire Wire Line
	1300 1250 1300 1350
Wire Wire Line
	1100 1250 1300 1250
Wire Wire Line
	1300 1050 1400 1050
$Comp
L Device:Q_PMOS_GDS Q1
U 1 1 5EC9246B
P 1600 1150
F 0 "Q1" V 1942 1150 50  0000 C CNN
F 1 "STD35P6LLF6" V 1851 1150 50  0000 C CNN
F 2 "Package_TO_SOT_SMD:TO-252-2" H 1800 1250 50  0001 C CNN
F 3 "~" H 1600 1150 50  0001 C CNN
	1    1600 1150
	0    -1   -1   0   
$EndComp
$Comp
L Connector_Generic:Conn_01x02 J1
U 1 1 5D914C3D
P 900 1250
F 0 "J1" H 820 1467 50  0000 C CNN
F 1 "12v" H 820 1376 50  0000 C CNN
F 2 "Connector_JST_XA:JST_XA_B02B-XASK-1_1x02_P2.50mm_Vertical" H 900 1250 50  0001 C CNN
F 3 "~" H 900 1250 50  0001 C CNN
	1    900  1250
	-1   0    0    1   
$EndComp
Wire Wire Line
	1300 1150 1300 1050
Wire Notes Line
	4050 2100 4050 6350
Wire Notes Line
	2850 2100 4050 2100
Text GLabel 2100 5400 0    50   Input ~ 0
Volume1
Text GLabel 2100 5300 0    50   Input ~ 0
Volume2
Text GLabel 2100 5200 0    50   Input ~ 0
FuncSW_LED
Text GLabel 2100 5100 0    50   Input ~ 0
FuncSW
Text GLabel 2100 4700 0    50   BiDi ~ 0
SCL
Text GLabel 2100 4400 0    50   Input ~ 0
ID1
Text GLabel 2100 4300 0    50   Input ~ 0
ID4
Wire Wire Line
	2700 5650 2800 5650
Connection ~ 2800 5650
Wire Wire Line
	2900 5650 2800 5650
Wire Wire Line
	2900 5600 2900 5650
$Comp
L power:+3.3V #PWR017
U 1 1 6081620D
P 2850 2500
F 0 "#PWR017" H 2850 2350 50  0001 C CNN
F 1 "+3.3V" H 2865 2673 50  0000 C CNN
F 2 "" H 2850 2500 50  0001 C CNN
F 3 "" H 2850 2500 50  0001 C CNN
	1    2850 2500
	1    0    0    -1  
$EndComp
Text GLabel 3400 5300 2    50   Input ~ 0
SWCLK
Text GLabel 3400 5200 2    50   Input ~ 0
SWDIO
Connection ~ 1150 3500
Wire Wire Line
	1150 3500 1600 3500
Connection ~ 1150 3200
Wire Wire Line
	1150 3200 2100 3200
$Comp
L Device:Crystal Y1
U 1 1 6075B132
P 1150 3350
F 0 "Y1" V 1104 3481 50  0000 L CNN
F 1 "8MHz" V 1195 3481 50  0000 L CNN
F 2 "Crystal:Crystal_SMD_Abracon_ABM3-2Pin_5.0x3.2mm" H 1150 3350 50  0001 C CNN
F 3 "~" H 1150 3350 50  0001 C CNN
	1    1150 3350
	0    1    1    0   
$EndComp
Wire Wire Line
	800  3500 800  3200
Connection ~ 800  3500
Wire Wire Line
	850  3500 800  3500
Wire Wire Line
	800  3200 850  3200
Wire Wire Line
	800  3600 800  3500
$Comp
L power:GND #PWR02
U 1 1 6075B127
P 800 3600
F 0 "#PWR02" H 800 3350 50  0001 C CNN
F 1 "GND" H 805 3427 50  0000 C CNN
F 2 "" H 800 3600 50  0001 C CNN
F 3 "" H 800 3600 50  0001 C CNN
	1    800  3600
	1    0    0    -1  
$EndComp
$Comp
L Device:C C4
U 1 1 6075B121
P 1000 3500
F 0 "C4" H 1115 3546 50  0000 L CNN
F 1 "22p" H 1115 3455 50  0000 L CNN
F 2 "Capacitor_SMD:C_0603_1608Metric" H 1038 3350 50  0001 C CNN
F 3 "~" H 1000 3500 50  0001 C CNN
	1    1000 3500
	0    1    1    0   
$EndComp
$Comp
L Device:C C3
U 1 1 6075B11B
P 1000 3200
F 0 "C3" H 1115 3246 50  0000 L CNN
F 1 "22p" H 1115 3155 50  0000 L CNN
F 2 "Capacitor_SMD:C_0603_1608Metric" H 1038 3050 50  0001 C CNN
F 3 "~" H 1000 3200 50  0001 C CNN
	1    1000 3200
	0    1    1    0   
$EndComp
$Comp
L power:GND #PWR010
U 1 1 6074667F
P 1400 3000
F 0 "#PWR010" H 1400 2750 50  0001 C CNN
F 1 "GND" H 1400 2900 50  0000 C CNN
F 2 "" H 1400 3000 50  0001 C CNN
F 3 "" H 1400 3000 50  0001 C CNN
	1    1400 3000
	1    0    0    -1  
$EndComp
Wire Wire Line
	1700 3000 1400 3000
Wire Wire Line
	2000 3000 2100 3000
$Comp
L Device:R R1
U 1 1 60746677
P 1850 3000
F 0 "R1" V 1900 3000 50  0000 C CNN
F 1 "10k" V 1800 3000 50  0000 C CNN
F 2 "Resistor_SMD:R_0603_1608Metric" V 1780 3000 50  0001 C CNN
F 3 "~" H 1850 3000 50  0001 C CNN
	1    1850 3000
	0    1    -1   0   
$EndComp
Text GLabel 2100 4000 0    50   Output ~ 0
Mode3_LED
Text GLabel 2100 3900 0    50   Input ~ 0
Mode3
Text GLabel 3400 4600 2    50   Output ~ 0
Mode2_LED
Text GLabel 3400 4500 2    50   Input ~ 0
Mode2
Text GLabel 3400 3900 2    50   Input ~ 0
toggle1
Text GLabel 3400 4300 2    50   Input ~ 0
Mode1
Text GLabel 3400 4400 2    50   Output ~ 0
Mode1_LED
Text GLabel 3400 4200 2    50   Input ~ 0
toggle4
Text GLabel 3400 4100 2    50   Input ~ 0
toggle3
Text GLabel 3400 4000 2    50   Input ~ 0
toggle2
Wire Wire Line
	2700 5600 2700 5650
Wire Wire Line
	2800 5600 2800 5650
$Comp
L power:GND #PWR016
U 1 1 606B6BC2
P 2800 5650
F 0 "#PWR016" H 2800 5400 50  0001 C CNN
F 1 "GND" H 2805 5477 50  0000 C CNN
F 2 "" H 2800 5650 50  0001 C CNN
F 3 "" H 2800 5650 50  0001 C CNN
	1    2800 5650
	1    0    0    -1  
$EndComp
Text GLabel 3400 5100 2    50   Output ~ 0
CAN_TX
Text GLabel 3400 5000 2    50   Input ~ 0
CAN_RX
$Comp
L power:GND #PWR022
U 1 1 60681370
P 3900 5300
F 0 "#PWR022" H 3900 5050 50  0001 C CNN
F 1 "GND" H 3905 5127 50  0000 C CNN
F 2 "" H 3900 5300 50  0001 C CNN
F 3 "" H 3900 5300 50  0001 C CNN
	1    3900 5300
	1    0    0    -1  
$EndComp
Text GLabel 3400 4800 2    50   Output ~ 0
UART1_TX
Text GLabel 3400 4900 2    50   Input ~ 0
UART1_RX
Connection ~ 1950 2800
Wire Wire Line
	1650 2800 1950 2800
Text GLabel 1650 2800 0    50   BiDi ~ 0
NRST
$Comp
L power:+3.3V #PWR012
U 1 1 5D942E12
P 1950 2450
F 0 "#PWR012" H 1950 2300 50  0001 C CNN
F 1 "+3.3V" H 1950 2590 50  0000 C CNN
F 2 "" H 1950 2450 50  0001 C CNN
F 3 "" H 1950 2450 50  0001 C CNN
	1    1950 2450
	1    0    0    -1  
$EndComp
Wire Wire Line
	1950 2450 1950 2500
Wire Wire Line
	1950 2800 2100 2800
$Comp
L Device:R R2
U 1 1 5DB9ADF5
P 1950 2650
F 0 "R2" H 1880 2604 50  0000 R CNN
F 1 "10k" H 1880 2695 50  0000 R CNN
F 2 "Resistor_SMD:R_0603_1608Metric" V 1880 2650 50  0001 C CNN
F 3 "~" H 1950 2650 50  0001 C CNN
	1    1950 2650
	1    0    0    1   
$EndComp
Wire Notes Line
	11100 2300 6650 2300
Wire Notes Line
	6650 2300 6650 600 
Wire Notes Line
	11100 600  7800 600 
Wire Notes Line
	4250 650  3900 650 
Wire Notes Line
	3900 2050 5000 2050
Wire Notes Line
	5000 2050 5000 650 
Wire Notes Line
	5000 650  4850 650 
Wire Notes Line
	4850 4000 10950 4000
Wire Notes Line
	10950 4000 10950 2450
Wire Notes Line
	10950 2450 6150 2450
Wire Notes Line
	4850 4000 4850 2450
Wire Notes Line
	4850 2450 5150 2450
Wire Notes Line
	950  600  750  600 
Wire Notes Line
	750  600  750  1850
Wire Notes Line
	750  1850 3850 1850
Wire Notes Line
	3850 600  1850 600 
Wire Wire Line
	2600 2600 2600 2500
Wire Wire Line
	2600 2500 2700 2500
Wire Wire Line
	2700 2600 2700 2500
Connection ~ 2700 2500
Wire Wire Line
	2700 2500 2800 2500
Wire Wire Line
	2800 2600 2800 2500
Connection ~ 2800 2500
Wire Wire Line
	2800 2500 2850 2500
Wire Wire Line
	2850 2500 2900 2500
Wire Wire Line
	2900 2500 2900 2600
Connection ~ 2850 2500
Wire Wire Line
	2900 2500 3000 2500
Wire Wire Line
	3000 2500 3000 2600
Connection ~ 2900 2500
Text Notes 8150 7650 0    47   ~ 9
starting from 2021/3/18
$Comp
L power:+12V #PWR09
U 1 1 6084EC9D
P 1300 1000
F 0 "#PWR09" H 1300 850 50  0001 C CNN
F 1 "+12V" H 1315 1173 50  0000 C CNN
F 2 "" H 1300 1000 50  0001 C CNN
F 3 "" H 1300 1000 50  0001 C CNN
	1    1300 1000
	1    0    0    -1  
$EndComp
Wire Wire Line
	1300 1050 1300 1000
Wire Wire Line
	1300 1350 1600 1350
Connection ~ 1300 1050
Wire Wire Line
	1800 1050 2250 1050
Connection ~ 2250 1050
Wire Wire Line
	1600 1350 2250 1350
Connection ~ 1600 1350
Connection ~ 2250 1350
Text Notes 2150 2200 0    126  ~ 25
MCU_2\n
Wire Notes Line
	700  2100 2150 2100
$Comp
L MCU_ST_STM32F3:STM32F303C8Tx U2
U 1 1 606B4188
P 2800 4100
F 0 "U2" H 2750 4200 50  0000 C CNN
F 1 "STM32F303C8Tx" H 2750 4050 50  0000 C CNN
F 2 "Package_QFP:LQFP-48_7x7mm_P0.5mm" H 2200 2700 50  0001 R CNN
F 3 "http://www.st.com/st-web-ui/static/active/en/resource/technical/document/datasheet/DM00092070.pdf" H 2800 4100 50  0001 C CNN
	1    2800 4100
	1    0    0    -1  
$EndComp
Wire Wire Line
	2600 5600 2600 5650
Wire Wire Line
	2600 5650 2700 5650
Connection ~ 2700 5650
$Comp
L Device:R R4
U 1 1 60681376
P 3900 5150
F 0 "R4" H 3900 5200 50  0000 L CNN
F 1 "1k" H 3900 5100 50  0000 L CNN
F 2 "Resistor_SMD:R_0603_1608Metric" V 3830 5150 50  0001 C CNN
F 3 "~" H 3900 5150 50  0001 C CNN
	1    3900 5150
	1    0    0    -1  
$EndComp
$Comp
L Device:LED D2
U 1 1 6068137C
P 3900 4850
F 0 "D2" V 3900 4850 50  0000 R CNN
F 1 "Func" V 3800 4900 50  0000 R CNN
F 2 "LED_SMD:LED_0603_1608Metric" H 3900 4850 50  0001 C CNN
F 3 "~" H 3900 4850 50  0001 C CNN
	1    3900 4850
	0    -1   -1   0   
$EndComp
Connection ~ 1100 5150
Wire Wire Line
	1300 5150 1100 5150
Wire Wire Line
	1300 5100 1300 5150
Connection ~ 1100 4800
Wire Wire Line
	1100 4800 1300 4800
$Comp
L power:+3.3V #PWR05
U 1 1 606493CF
P 1100 4800
F 0 "#PWR05" H 1100 4650 50  0001 C CNN
F 1 "+3.3V" H 1100 4940 50  0000 C CNN
F 2 "" H 1100 4800 50  0001 C CNN
F 3 "" H 1100 4800 50  0001 C CNN
	1    1100 4800
	1    0    0    -1  
$EndComp
Wire Wire Line
	1100 4800 900  4800
Wire Wire Line
	900  5150 1100 5150
Wire Wire Line
	900  5100 900  5150
$Comp
L power:GND #PWR06
U 1 1 606493C0
P 1100 5150
F 0 "#PWR06" H 1100 4900 50  0001 C CNN
F 1 "GND" H 1105 4977 50  0000 C CNN
F 2 "" H 1100 5150 50  0001 C CNN
F 3 "" H 1100 5150 50  0001 C CNN
	1    1100 5150
	1    0    0    -1  
$EndComp
$Comp
L Device:C C7
U 1 1 606493BA
P 1300 4950
F 0 "C7" H 1415 4996 50  0000 L CNN
F 1 "0.1u" H 1415 4905 50  0000 L CNN
F 2 "Capacitor_SMD:C_0603_1608Metric" H 1338 4800 50  0001 C CNN
F 3 "~" H 1300 4950 50  0001 C CNN
	1    1300 4950
	1    0    0    -1  
$EndComp
$Comp
L Device:C C2
U 1 1 606493B4
P 900 4950
F 0 "C2" H 1015 4996 50  0000 L CNN
F 1 "0.1u" H 1015 4905 50  0000 L CNN
F 2 "Capacitor_SMD:C_0603_1608Metric" H 938 4800 50  0001 C CNN
F 3 "~" H 900 4950 50  0001 C CNN
	1    900  4950
	1    0    0    -1  
$EndComp
$Comp
L Device:C C5
U 1 1 607A9CA0
P 1100 5900
F 0 "C5" H 1215 5946 50  0000 L CNN
F 1 "0.1uF" H 1215 5855 50  0000 L CNN
F 2 "Capacitor_SMD:C_0603_1608Metric" H 1138 5750 50  0001 C CNN
F 3 "~" H 1100 5900 50  0001 C CNN
	1    1100 5900
	1    0    0    -1  
$EndComp
Connection ~ 1100 5750
$Comp
L power:GND #PWR07
U 1 1 607BAE18
P 1100 6050
F 0 "#PWR07" H 1100 5800 50  0001 C CNN
F 1 "GND" H 1105 5877 50  0000 C CNN
F 2 "" H 1100 6050 50  0001 C CNN
F 3 "" H 1100 6050 50  0001 C CNN
	1    1100 6050
	1    0    0    -1  
$EndComp
Wire Wire Line
	1500 5750 1500 6050
Wire Wire Line
	1600 3500 1600 3300
Wire Wire Line
	1600 3300 2100 3300
Wire Notes Line
	4050 6350 700  6350
Wire Notes Line
	700  2100 700  6350
NoConn ~ 2100 3500
NoConn ~ 2100 3600
NoConn ~ 2100 3700
Wire Notes Line
	10000 4800 8950 4800
$Comp
L power:+3.3V #PWR061
U 1 1 605B5841
P 10500 4950
F 0 "#PWR061" H 10500 4800 50  0001 C CNN
F 1 "+3.3V" H 10515 5123 50  0000 C CNN
F 2 "" H 10500 4950 50  0001 C CNN
F 3 "" H 10500 4950 50  0001 C CNN
	1    10500 4950
	1    0    0    -1  
$EndComp
$Comp
L power:PWR_FLAG #FLG06
U 1 1 605B65B2
P 10850 4950
F 0 "#FLG06" H 10850 5025 50  0001 C CNN
F 1 "PWR_FLAG" H 10850 5123 50  0000 C CNN
F 2 "" H 10850 4950 50  0001 C CNN
F 3 "~" H 10850 4950 50  0001 C CNN
	1    10850 4950
	1    0    0    -1  
$EndComp
Wire Wire Line
	10500 4950 10500 5450
Wire Wire Line
	10850 4950 10850 5450
$Comp
L power:PWR_FLAG #FLG04
U 1 1 605D8398
P 10500 5450
F 0 "#FLG04" H 10500 5525 50  0001 C CNN
F 1 "PWR_FLAG" H 10500 5623 50  0000 C CNN
F 2 "" H 10500 5450 50  0001 C CNN
F 3 "~" H 10500 5450 50  0001 C CNN
	1    10500 5450
	-1   0    0    1   
$EndComp
$Comp
L power:GND #PWR065
U 1 1 605D95D5
P 10850 5450
F 0 "#PWR065" H 10850 5200 50  0001 C CNN
F 1 "GND" H 10855 5277 50  0000 C CNN
F 2 "" H 10850 5450 50  0001 C CNN
F 3 "" H 10850 5450 50  0001 C CNN
	1    10850 5450
	1    0    0    -1  
$EndComp
$Comp
L power:PWR_FLAG #FLG01
U 1 1 605D6F8A
P 10150 5450
F 0 "#FLG01" H 10150 5525 50  0001 C CNN
F 1 "PWR_FLAG" H 10150 5623 50  0000 C CNN
F 2 "" H 10150 5450 50  0001 C CNN
F 3 "~" H 10150 5450 50  0001 C CNN
	1    10150 5450
	-1   0    0    1   
$EndComp
Wire Wire Line
	10150 4950 10150 5450
$Comp
L power:+12V #PWR057
U 1 1 605B4395
P 10150 4950
F 0 "#PWR057" H 10150 4800 50  0001 C CNN
F 1 "+12V" H 10165 5123 50  0000 C CNN
F 2 "" H 10150 4950 50  0001 C CNN
F 3 "" H 10150 4950 50  0001 C CNN
	1    10150 4950
	1    0    0    -1  
$EndComp
Wire Wire Line
	10150 6250 10150 6150
$Comp
L power:PWR_FLAG #FLG02
U 1 1 5E5E68AB
P 10150 6250
F 0 "#FLG02" H 10150 6325 50  0001 C CNN
F 1 "PWR_FLAG" H 10150 6424 50  0000 C CNN
F 2 "" H 10150 6250 50  0001 C CNN
F 3 "~" H 10150 6250 50  0001 C CNN
	1    10150 6250
	-1   0    0    1   
$EndComp
$Comp
L power:+BATT #PWR058
U 1 1 5E5E6818
P 10150 6150
F 0 "#PWR058" H 10150 6000 50  0001 C CNN
F 1 "+BATT" H 10165 6323 50  0000 C CNN
F 2 "" H 10150 6150 50  0001 C CNN
F 3 "" H 10150 6150 50  0001 C CNN
	1    10150 6150
	1    0    0    -1  
$EndComp
$Comp
L aki_Switch:MP86A1GN3H-G SW2
U 1 1 6060AA85
P 5850 3200
F 0 "SW2" H 5850 3635 50  0000 C CNN
F 1 "Mode1" H 5850 3544 50  0000 C CNN
F 2 "aki_Switch:MP86A1GN3H-G" H 6350 3450 50  0001 L CNN
F 3 "http://akizukidenshi.com/download/ds/switronic/MP86A1GN3H-G.pdf" H 6350 3350 50  0001 L CNN
F 4 "Pushbutton Switch" H 6350 3250 50  0001 L CNN "Description"
F 5 "8" H 6350 3150 50  0001 L CNN "Height"
F 6 "Switronic" H 6350 3050 50  0001 L CNN "Manufacturer_Name"
F 7 "MP86-A1-GN-3H-G" H 6350 2950 50  0001 L CNN "Manufacturer_Part_Number"
	1    5850 3200
	1    0    0    -1  
$EndComp
$Comp
L Switch:SW_Coded_SH-7040 SW9
U 1 1 5D915179
P 9400 5400
F 0 "SW9" H 9070 5446 50  0000 R CNN
F 1 "CANID" H 9070 5355 50  0000 R CNN
F 2 "aki_Switch:42J02GB" H 9100 4950 50  0001 L CNN
F 3 "https://www.nidec-copal-electronics.com/e/catalog/switch/sh-7000.pdf" H 9400 5400 50  0001 C CNN
	1    9400 5400
	-1   0    0    -1  
$EndComp
$Comp
L Device:R R21
U 1 1 6101EF64
P 8600 5850
F 0 "R21" H 8600 5900 50  0000 L CNN
F 1 "10k" H 8600 5800 50  0000 L CNN
F 2 "Resistor_SMD:R_0603_1608Metric" V 8530 5850 50  0001 C CNN
F 3 "~" H 8600 5850 50  0001 C CNN
	1    8600 5850
	1    0    0    -1  
$EndComp
$Comp
L Device:R R22
U 1 1 6101F0BF
P 8800 5850
F 0 "R22" H 8750 5900 50  0000 L CNN
F 1 "10k" H 8750 5800 50  0000 L CNN
F 2 "Resistor_SMD:R_0603_1608Metric" V 8730 5850 50  0001 C CNN
F 3 "~" H 8800 5850 50  0001 C CNN
	1    8800 5850
	1    0    0    -1  
$EndComp
$Comp
L Device:R R23
U 1 1 6101F2C8
P 8950 5850
F 0 "R23" H 8950 5900 50  0000 L CNN
F 1 "10k" H 8950 5800 50  0000 L CNN
F 2 "Resistor_SMD:R_0603_1608Metric" V 8880 5850 50  0001 C CNN
F 3 "~" H 8950 5850 50  0001 C CNN
	1    8950 5850
	1    0    0    -1  
$EndComp
$Comp
L Device:R R19
U 1 1 6101E827
P 8450 5850
F 0 "R19" H 8350 5900 50  0000 L CNN
F 1 "10k" H 8350 5800 50  0000 L CNN
F 2 "Resistor_SMD:R_0603_1608Metric" V 8380 5850 50  0001 C CNN
F 3 "~" H 8450 5850 50  0001 C CNN
	1    8450 5850
	1    0    0    -1  
$EndComp
Connection ~ 8450 5300
Wire Wire Line
	8450 5300 9000 5300
Connection ~ 8950 5500
Wire Wire Line
	8950 5500 9000 5500
Wire Wire Line
	8400 5500 8950 5500
Connection ~ 8800 5600
Wire Wire Line
	8800 5600 9000 5600
Connection ~ 8800 6100
Wire Wire Line
	8800 6100 8950 6100
Wire Wire Line
	8700 6100 8800 6100
Wire Wire Line
	8400 5600 8800 5600
Connection ~ 8600 5400
Connection ~ 8600 6100
Wire Wire Line
	8600 5400 9000 5400
Wire Wire Line
	8600 6100 8700 6100
Wire Wire Line
	3400 4700 3900 4700
Text GLabel 2100 4800 0    50   BiDi ~ 0
SDA
Text GLabel 2100 4600 0    50   Input ~ 0
ID8
Text GLabel 2100 4500 0    50   Input ~ 0
ID2
Text GLabel 3400 5400 2    50   Input ~ 0
StartSW_LED
Text GLabel 2100 4900 0    50   Output ~ 0
Mode4_LED
$Comp
L power:GND #PWR023
U 1 1 60767ED6
P 3950 1500
F 0 "#PWR023" H 3950 1250 50  0001 C CNN
F 1 "GND" V 3955 1372 50  0000 R CNN
F 2 "" H 3950 1500 50  0001 C CNN
F 3 "" H 3950 1500 50  0001 C CNN
	1    3950 1500
	1    0    0    -1  
$EndComp
$Comp
L power:+3.3V #PWR027
U 1 1 607C124C
P 4850 900
F 0 "#PWR027" H 4850 750 50  0001 C CNN
F 1 "+3.3V" H 4865 1073 50  0000 C CNN
F 2 "" H 4850 900 50  0001 C CNN
F 3 "" H 4850 900 50  0001 C CNN
	1    4850 900 
	1    0    0    -1  
$EndComp
NoConn ~ 4550 1450
$Comp
L Connector_Generic:Conn_01x09 J4
U 1 1 607667A2
P 4550 1650
F 0 "J4" V 4675 1646 50  0000 C CNN
F 1 "LCD" V 4766 1646 50  0000 C CNN
F 2 "aki_Switch:SO2002AWYB-UC-WB-U" H 4550 1650 50  0001 C CNN
F 3 "~" H 4550 1650 50  0001 C CNN
	1    4550 1650
	0    -1   1    0   
$EndComp
$Comp
L power:+3.3V #PWR024
U 1 1 60810B16
P 4250 1050
F 0 "#PWR024" H 4250 900 50  0001 C CNN
F 1 "+3.3V" H 4265 1223 50  0000 C CNN
F 2 "" H 4250 1050 50  0001 C CNN
F 3 "" H 4250 1050 50  0001 C CNN
	1    4250 1050
	1    0    0    -1  
$EndComp
Wire Wire Line
	3950 1500 3950 1350
Wire Wire Line
	3950 1350 4150 1350
Wire Wire Line
	4350 1350 4350 1450
Wire Wire Line
	4350 1350 4450 1350
Wire Wire Line
	4450 1350 4450 1450
Connection ~ 4350 1350
Wire Wire Line
	4150 1450 4150 1350
Wire Wire Line
	4150 1350 4350 1350
Wire Wire Line
	4250 1450 4250 1200
Connection ~ 3950 1350
Wire Wire Line
	3950 1350 3950 1200
$Comp
L Device:C C11
U 1 1 60A9F6E5
P 4100 1200
F 0 "C11" H 4215 1246 50  0000 L CNN
F 1 "0.1u" H 4215 1155 50  0000 L CNN
F 2 "Capacitor_SMD:C_0603_1608Metric" H 4138 1050 50  0001 C CNN
F 3 "~" H 4100 1200 50  0001 C CNN
	1    4100 1200
	0    1    1    0   
$EndComp
Connection ~ 4250 1200
Wire Wire Line
	4250 1200 4250 1050
Wire Notes Line
	3850 600  3850 1850
Connection ~ 4150 1350
NoConn ~ 4650 1450
$Comp
L Device:R R7
U 1 1 60AF02E0
P 4900 1150
F 0 "R7" H 4900 1200 50  0000 L CNN
F 1 "4.7k" H 4850 1100 50  0000 L CNN
F 2 "Resistor_SMD:R_0603_1608Metric" V 4830 1150 50  0001 C CNN
F 3 "~" H 4900 1150 50  0001 C CNN
	1    4900 1150
	1    0    0    -1  
$EndComp
$Comp
L Device:R R6
U 1 1 60AF0927
P 4750 1050
F 0 "R6" H 4750 1100 50  0000 L CNN
F 1 "4.7k" H 4700 1000 50  0000 L CNN
F 2 "Resistor_SMD:R_0603_1608Metric" V 4680 1050 50  0001 C CNN
F 3 "~" H 4750 1050 50  0001 C CNN
	1    4750 1050
	1    0    0    -1  
$EndComp
Wire Wire Line
	4850 1450 4900 1450
Wire Wire Line
	4900 1450 4900 1300
Connection ~ 4900 1450
Wire Wire Line
	4900 1450 4950 1450
Wire Wire Line
	4750 1200 4750 1450
Wire Wire Line
	4750 900  4850 900 
Wire Wire Line
	4900 900  4900 1000
Connection ~ 4850 900 
Wire Wire Line
	4850 900  4900 900 
Wire Wire Line
	4750 1200 4700 1200
Connection ~ 4750 1200
Wire Wire Line
	4900 1300 4700 1300
Connection ~ 4900 1300
Text GLabel 4700 1200 0    50   BiDi ~ 0
SCL
Text GLabel 4700 1300 0    50   BiDi ~ 0
SDA
Wire Notes Line
	3900 650  3900 2050
Wire Wire Line
	7300 1250 7400 1250
Connection ~ 7300 1250
Wire Wire Line
	8300 1250 8400 1250
Connection ~ 8300 1250
Wire Wire Line
	9300 1250 9400 1250
Connection ~ 9300 1250
Connection ~ 10350 1250
Text GLabel 6050 1650 2    50   Input ~ 0
FuncSW_LED
Connection ~ 1100 4400
Wire Wire Line
	1300 4400 1100 4400
Wire Wire Line
	1300 4350 1300 4400
Connection ~ 1100 4050
Wire Wire Line
	1100 4050 1300 4050
$Comp
L power:+3.3V #PWR03
U 1 1 60EDCCB5
P 1100 4050
F 0 "#PWR03" H 1100 3900 50  0001 C CNN
F 1 "+3.3V" H 1100 4190 50  0000 C CNN
F 2 "" H 1100 4050 50  0001 C CNN
F 3 "" H 1100 4050 50  0001 C CNN
	1    1100 4050
	1    0    0    -1  
$EndComp
Wire Wire Line
	1100 4050 900  4050
Wire Wire Line
	900  4400 1100 4400
Wire Wire Line
	900  4350 900  4400
$Comp
L power:GND #PWR04
U 1 1 60EDCCBE
P 1100 4400
F 0 "#PWR04" H 1100 4150 50  0001 C CNN
F 1 "GND" H 1105 4227 50  0000 C CNN
F 2 "" H 1100 4400 50  0001 C CNN
F 3 "" H 1100 4400 50  0001 C CNN
	1    1100 4400
	1    0    0    -1  
$EndComp
$Comp
L Device:C C6
U 1 1 60EDCCC4
P 1300 4200
F 0 "C6" H 1415 4246 50  0000 L CNN
F 1 "0.1u" H 1415 4155 50  0000 L CNN
F 2 "Capacitor_SMD:C_0603_1608Metric" H 1338 4050 50  0001 C CNN
F 3 "~" H 1300 4200 50  0001 C CNN
	1    1300 4200
	1    0    0    -1  
$EndComp
$Comp
L Device:C C1
U 1 1 60EDCCCA
P 900 4200
F 0 "C1" H 1015 4246 50  0000 L CNN
F 1 "0.1u" H 1015 4155 50  0000 L CNN
F 2 "Capacitor_SMD:C_0603_1608Metric" H 938 4050 50  0001 C CNN
F 3 "~" H 900 4200 50  0001 C CNN
	1    900  4200
	1    0    0    -1  
$EndComp
Text GLabel 2100 4200 0    50   Input ~ 0
StartSW
Text GLabel 2100 4100 0    50   Input ~ 0
Mode4
NoConn ~ 2100 5000
Wire Wire Line
	4450 7300 4600 7300
Wire Wire Line
	4600 7300 4600 7400
Wire Wire Line
	4600 7400 4700 7400
Connection ~ 4700 7400
Wire Wire Line
	4450 7200 4600 7200
Wire Wire Line
	4600 7200 4600 7100
Wire Wire Line
	4600 7100 4700 7100
Connection ~ 4700 7100
Wire Notes Line
	600  7750 6750 7750
Text GLabel 3650 7300 0    50   Input ~ 0
CAN_TX
$Comp
L Interface_CAN_LIN:ISO1050DUB U3
U 1 1 60670D37
P 4050 7200
F 0 "U3" H 4050 7567 50  0000 C CNN
F 1 "ISO1050DUB" H 4050 7476 50  0000 C CNN
F 2 "Package_SO:SOP-8_6.62x9.15mm_P2.54mm" H 4050 6850 50  0001 C CIN
F 3 "http://www.ti.com/lit/ds/symlink/iso1050.pdf" H 4050 7150 50  0001 C CNN
	1    4050 7200
	1    0    0    -1  
$EndComp
Wire Wire Line
	3650 7100 3200 7100
Connection ~ 3200 7100
Connection ~ 3200 7400
$Comp
L power:+5VA #PWR025
U 1 1 6089F15B
P 4450 7100
F 0 "#PWR025" H 4450 6950 50  0001 C CNN
F 1 "+5VA" H 4465 7273 50  0000 C CNN
F 2 "" H 4450 7100 50  0001 C CNN
F 3 "" H 4450 7100 50  0001 C CNN
	1    4450 7100
	1    0    0    -1  
$EndComp
$Comp
L power:GNDA #PWR026
U 1 1 608A0DE9
P 4450 7400
F 0 "#PWR026" H 4450 7150 50  0001 C CNN
F 1 "GNDA" H 4455 7227 50  0000 C CNN
F 2 "" H 4450 7400 50  0001 C CNN
F 3 "" H 4450 7400 50  0001 C CNN
	1    4450 7400
	1    0    0    -1  
$EndComp
$Comp
L power:+5VA #PWR060
U 1 1 6090E71E
P 10450 6150
F 0 "#PWR060" H 10450 6000 50  0001 C CNN
F 1 "+5VA" H 10465 6323 50  0000 C CNN
F 2 "" H 10450 6150 50  0001 C CNN
F 3 "" H 10450 6150 50  0001 C CNN
	1    10450 6150
	1    0    0    -1  
$EndComp
$Comp
L power:PWR_FLAG #FLG03
U 1 1 6092115D
P 10450 6250
F 0 "#FLG03" H 10450 6325 50  0001 C CNN
F 1 "PWR_FLAG" H 10450 6423 50  0000 C CNN
F 2 "" H 10450 6250 50  0001 C CNN
F 3 "~" H 10450 6250 50  0001 C CNN
	1    10450 6250
	-1   0    0    1   
$EndComp
Wire Wire Line
	10450 6150 10450 6250
$Comp
L power:GNDA #PWR063
U 1 1 6095C5E8
P 10750 6250
F 0 "#PWR063" H 10750 6000 50  0001 C CNN
F 1 "GNDA" H 10755 6077 50  0000 C CNN
F 2 "" H 10750 6250 50  0001 C CNN
F 3 "" H 10750 6250 50  0001 C CNN
	1    10750 6250
	1    0    0    -1  
$EndComp
$Comp
L power:PWR_FLAG #FLG05
U 1 1 6095DFCA
P 10750 6150
F 0 "#FLG05" H 10750 6225 50  0001 C CNN
F 1 "PWR_FLAG" H 10750 6323 50  0000 C CNN
F 2 "" H 10750 6150 50  0001 C CNN
F 3 "~" H 10750 6150 50  0001 C CNN
	1    10750 6150
	1    0    0    -1  
$EndComp
Wire Wire Line
	10750 6150 10750 6250
$Comp
L Switch:SW_SPDT SW6
U 1 1 60986D17
P 7600 1250
F 0 "SW6" H 7600 1535 50  0000 C CNN
F 1 "toggle1" H 7600 1444 50  0000 C CNN
F 2 "aki_Switch:2MS1-T1-B4-VS2-Q-E-S" H 7600 1250 50  0001 C CNN
F 3 "~" H 7600 1250 50  0001 C CNN
	1    7600 1250
	1    0    0    -1  
$EndComp
$Comp
L Switch:SW_SPDT SW10
U 1 1 60987EEB
P 9600 1250
F 0 "SW10" H 9600 1535 50  0000 C CNN
F 1 "toggle3" H 9600 1444 50  0000 C CNN
F 2 "aki_Switch:2MS1-T1-B4-VS2-Q-E-S" H 9600 1250 50  0001 C CNN
F 3 "~" H 9600 1250 50  0001 C CNN
	1    9600 1250
	1    0    0    -1  
$EndComp
Wire Wire Line
	10350 1250 10450 1250
$Comp
L Switch:SW_SPDT SW7
U 1 1 609877F4
P 8600 1250
F 0 "SW7" H 8600 1535 50  0000 C CNN
F 1 "toggle2" H 8600 1444 50  0000 C CNN
F 2 "aki_Switch:2MS1-T1-B4-VS2-Q-E-S" H 8600 1250 50  0001 C CNN
F 3 "~" H 8600 1250 50  0001 C CNN
	1    8600 1250
	1    0    0    -1  
$EndComp
$Comp
L Switch:SW_SPDT SW12
U 1 1 60989360
P 10650 1250
F 0 "SW12" H 10650 1535 50  0000 C CNN
F 1 "toggle4" H 10650 1444 50  0000 C CNN
F 2 "aki_Switch:2MS1-T1-B4-VS2-Q-E-S" H 10650 1250 50  0001 C CNN
F 3 "~" H 10650 1250 50  0001 C CNN
	1    10650 1250
	1    0    0    -1  
$EndComp
NoConn ~ 10850 1350
NoConn ~ 9800 1350
NoConn ~ 8800 1350
NoConn ~ 7800 1350
$Comp
L power:GNDA #PWR034
U 1 1 6092897C
P 5500 7350
F 0 "#PWR034" H 5500 7100 50  0001 C CNN
F 1 "GNDA" H 5505 7177 50  0000 C CNN
F 2 "" H 5500 7350 50  0001 C CNN
F 3 "" H 5500 7350 50  0001 C CNN
	1    5500 7350
	1    0    0    -1  
$EndComp
$Comp
L power:GNDA #PWR037
U 1 1 60928FBC
P 6250 7350
F 0 "#PWR037" H 6250 7100 50  0001 C CNN
F 1 "GNDA" H 6255 7177 50  0000 C CNN
F 2 "" H 6250 7350 50  0001 C CNN
F 3 "" H 6250 7350 50  0001 C CNN
	1    6250 7350
	1    0    0    -1  
$EndComp
$Comp
L power:+5VA #PWR033
U 1 1 6096A663
P 5500 6950
F 0 "#PWR033" H 5500 6800 50  0001 C CNN
F 1 "+5VA" H 5515 7123 50  0000 C CNN
F 2 "" H 5500 6950 50  0001 C CNN
F 3 "" H 5500 6950 50  0001 C CNN
	1    5500 6950
	1    0    0    -1  
$EndComp
$Comp
L power:+5VA #PWR036
U 1 1 6096B0A4
P 6250 6950
F 0 "#PWR036" H 6250 6800 50  0001 C CNN
F 1 "+5VA" H 6265 7123 50  0000 C CNN
F 2 "" H 6250 6950 50  0001 C CNN
F 3 "" H 6250 6950 50  0001 C CNN
	1    6250 6950
	1    0    0    -1  
$EndComp
$Comp
L Device:R R3
U 1 1 6076DE7A
P 3550 1500
F 0 "R3" H 3550 1550 50  0000 L CNN
F 1 "1k" H 3550 1450 50  0000 L CNN
F 2 "Resistor_SMD:R_0603_1608Metric" V 3480 1500 50  0001 C CNN
F 3 "~" H 3550 1500 50  0001 C CNN
	1    3550 1500
	1    0    0    -1  
$EndComp
$Comp
L Device:LED D1
U 1 1 6076DE80
P 3550 1200
F 0 "D1" V 3550 1200 50  0000 R CNN
F 1 "Func" V 3450 1250 50  0000 R CNN
F 2 "LED_SMD:LED_0603_1608Metric" H 3550 1200 50  0001 C CNN
F 3 "~" H 3550 1200 50  0001 C CNN
	1    3550 1200
	0    -1   -1   0   
$EndComp
Wire Wire Line
	3300 1050 3550 1050
Connection ~ 3300 1050
$Comp
L power:GND #PWR021
U 1 1 607901D8
P 3550 1650
F 0 "#PWR021" H 3550 1400 50  0001 C CNN
F 1 "GND" H 3555 1477 50  0000 C CNN
F 2 "" H 3550 1650 50  0001 C CNN
F 3 "" H 3550 1650 50  0001 C CNN
	1    3550 1650
	1    0    0    -1  
$EndComp
$EndSCHEMATC
